<?xml version="1.0" encoding="utf-8"?>
<!-- Generator: Adobe Illustrator 16.0.0, SVG Export Plug-In . SVG Version: 6.00 Build 0)  -->
<!DOCTYPE svg PUBLIC "-//W3C//DTD SVG 1.1//EN" "http://www.w3.org/Graphics/SVG/1.1/DTD/svg11.dtd">
<svg version="1.1" id="Layer_1" xmlns="http://www.w3.org/2000/svg" xmlns:xlink="http://www.w3.org/1999/xlink" x="0px" y="0px"
	 width="220px" height="220px" viewBox="0 0 220 220" enable-background="new 0 0 220 220" xml:space="preserve">
<g>
	<path fill="#F7941D" d="M153.65,105.346c-11.372,11.984-11.109,35.389-36.606,47.01c-37.134,16.922-60.327-3.9-71.159-18.836
		c-9.482-13.082-18.169-30.65-18.169-51.07c0-44.146,34.664-80.197,78.263-82.41C47.19,2.271,0.203,50.613,0.203,109.949
		c0,60.777,49.268,110.041,110.029,110.041c12.033,0,23.57-2.057,34.432-5.529c43.058-13.766,93.504-68.865,68.459-141.748
		C172.494,76.93,153.68,105.359,153.65,105.346z"/>
	<g>
		<path fill="#F7941D" d="M180.417,39.062c1.064,0.035,2.144,0.072,3.224,0.072c3.452,0,6.857-0.23,10.211-0.643
			c-19.325-22.582-47.613-37.246-79.38-38.453c-0.331-0.016-0.676-0.016-1.014-0.029C127.47,22.641,152.111,37.973,180.417,39.062z"
			/>
	</g>
</g>
</svg>
